norm_bkg,1.31206,0.667634
gamma_stat_CR_bin_0,0.990406,1.01022
gamma_stat_SR_bin_0,1.0321,0.967924
gamma_stat_SR_bin_1,1.04058,0.959923
gamma_stat_SR_bin_2,1.04615,0.954573
gamma_stat_SR_bin_3,1.04347,0.957249
gamma_stat_SR_bin_4,1.05486,0.946171
gamma_stat_SR_bin_5,1.05264,0.948491
gamma_stat_SR_bin_6,1.05305,0.948059
gamma_stat_SR_bin_7,1.04492,0.955924
gamma_stat_SR_bin_8,1.04817,0.952666
gamma_stat_SR_bin_9,1.03962,0.961
gamma_stat_SR_bin_10,1.03361,0.966817
